						Order Microservice
					--------------------------
{
	"paymentType": 0,
	"clientId": 1,
	"items": [
		{
			"productId": 1,
			"quantity": 3,
			"price": 100
		},
		{
			"productId": 3,
			"quantity": 1,
			"price": 400
		}
	]
}